<?xml version="1.0" encoding="UTF-8"?>
<!DOCTYPE svg PUBLIC "-//W3C//DTD SVG 1.1//EN" "http://www.w3.org/Graphics/SVG/1.1/DTD/svg11.dtd">
<svg version="1.1" xmlns="http://www.w3.org/2000/svg" xmlns:xlink="http://www.w3.org/1999/xlink" x="0" y="0" width="245" height="175" viewBox="0, 0, 245, 175">
  <g id="Starred" transform="translate(0, 0)">
    <path d="M142.547,19.951 L142.359,23.138 L139.95,63.917 L178.055,49.111 L181.012,47.962 L181.992,50.988 L192.397,83.144 L193.38,86.183 L190.297,86.986 L150.851,97.256 L176.598,128.975 L178.597,131.438 L176.038,133.308 L148.851,153.174 L146.284,155.049 L144.563,152.372 L122.423,117.924 L100.439,152.364 L98.726,155.047 L96.153,153.179 L68.798,133.313 L66.213,131.435 L68.241,128.963 L94.131,97.403 L54.689,86.983 L51.62,86.172 L52.6,83.144 L63.005,50.988 L63.985,47.957 L66.946,49.112 L104.896,63.917 L102.637,23.127 L102.461,19.951 L142.547,19.951 z M136.181,25.97 L108.803,25.97 L111.145,68.249 L111.403,72.914 L107.062,71.221 L67.731,55.877 L59.287,81.973 L100.187,92.779 L104.714,93.975 L101.739,97.602 L74.902,130.315 L97.099,146.435 L119.888,110.733 L122.406,106.789 L124.936,110.725 L147.885,146.433 L169.946,130.313 L143.248,97.421 L140.297,93.786 L144.82,92.608 L185.706,81.962 L177.264,55.873 L137.763,71.222 L133.408,72.914 L133.685,68.238 L136.181,25.97 z" fill="#FFFFFF"/>
  </g>
</svg>
