<?xml version="1.0" encoding="UTF-8"?>
<!DOCTYPE svg PUBLIC "-//W3C//DTD SVG 1.1//EN" "http://www.w3.org/Graphics/SVG/1.1/DTD/svg11.dtd">
<svg version="1.1" xmlns="http://www.w3.org/2000/svg" xmlns:xlink="http://www.w3.org/1999/xlink" x="0" y="0" width="612" height="327.6" viewBox="0, 0, 612, 327.6">
  <g id="Layer_9" transform="translate(-0, -1.8)">
    <path d="M0,1.8 L612,1.8 L612,329.4 L0,329.4 L0,1.8 z" fill="#000000"/>
    <g>
      <g>
        <path d="M113.397,287.632 L113.397,44.568 L474.724,44.568 L474.724,287.632 L113.397,287.632 z" fill="#000000"/>
        <path d="M113.397,287.632 L113.397,44.568 L474.724,44.568 L474.724,287.632 L113.397,287.632 z" fill-opacity="0" stroke="#FFFFFF" stroke-width="1"/>
      </g>
      <g>
        <path d="M113.397,287.632 L113.397,134.491 L222.94,134.491 L222.94,287.632 L113.397,287.632 z" fill="#000000"/>
        <path d="M113.397,287.632 L113.397,134.491 L222.94,134.491 L222.94,287.632 L113.397,287.632 z" fill-opacity="0" stroke="#FFFFFF" stroke-width="1"/>
      </g>
      <g>
        <path d="M113.397,134.491 L113.397,44.568 L222.94,44.568 L222.94,134.491 L113.397,134.491 z" fill="#000000"/>
        <path d="M113.397,134.491 L113.397,44.568 L222.94,44.568 L222.94,134.491 L113.397,134.491 z" fill-opacity="0" stroke="#FFFFFF" stroke-width="1"/>
      </g>
      <g>
        <path d="M222.94,134.491 L222.94,103.426 L347.742,103.426 L347.742,134.491 L222.94,134.491 z" fill="#000000"/>
        <path d="M222.94,134.491 L222.94,103.426 L347.742,103.426 L347.742,134.491 L222.94,134.491 z" fill-opacity="0" stroke="#FFFFFF" stroke-width="1"/>
      </g>
      <g>
        <path d="M222.94,287.632 L222.94,134.491 L347.742,134.491 L347.742,287.632 L222.94,287.632 z" fill="#000000"/>
        <path d="M222.94,287.632 L222.94,134.491 L347.742,134.491 L347.742,287.632 L222.94,287.632 z" fill-opacity="0" stroke="#FFFFFF" stroke-width="1"/>
      </g>
      <g>
        <path d="M347.742,163.193 L347.742,134.491 L444.931,134.491 L444.931,163.193 L347.742,163.193 z" fill="#000000"/>
        <path d="M347.742,163.193 L347.742,134.491 L444.931,134.491 L444.931,163.193 L347.742,163.193 z" fill-opacity="0" stroke="#FFFFFF" stroke-width="1"/>
      </g>
      <g>
        <path d="M347.742,44.568 L474.724,44.568 L474.724,94.979 L444.931,94.979 L444.931,134.491 L347.742,134.491 L347.742,44.568 z" fill="#000000"/>
        <path d="M347.742,44.568 L474.724,44.568 L474.724,94.979 L444.931,94.979 L444.931,134.491 L347.742,134.491 L347.742,44.568 z" fill-opacity="0" stroke="#FFFFFF" stroke-width="1"/>
      </g>
      <g>
        <path d="M222.94,103.426 L222.94,44.568 L256.32,44.568 L256.32,103.426 L222.94,103.426 z" fill="#000000"/>
        <path d="M222.94,103.426 L222.94,44.568 L256.32,44.568 L256.32,103.426 L222.94,103.426 z" fill-opacity="0" stroke="#FFFFFF" stroke-width="1"/>
      </g>
      <g>
        <path d="M256.32,103.426 L256.32,44.568 L320.992,44.568 L320.992,103.426 L256.32,103.426 z" fill="#000000"/>
        <path d="M256.32,103.426 L256.32,44.568 L320.992,44.568 L320.992,103.426 L256.32,103.426 z" fill-opacity="0" stroke="#FFFFFF" stroke-width="1"/>
      </g>
      <g>
        <path d="M320.992,103.426 L320.992,74.36 L347.742,74.36 L347.742,103.426 L320.992,103.426 z" fill="#000000"/>
        <path d="M320.992,103.426 L320.992,74.36 L347.742,74.36 L347.742,103.426 L320.992,103.426 z" fill-opacity="0" stroke="#FFFFFF" stroke-width="1"/>
      </g>
      <g>
        <path d="M320.992,74.36 L320.992,44.568 L347.742,44.568 L347.742,74.36 L320.992,74.36 z" fill="#000000"/>
        <path d="M320.992,74.36 L320.992,44.568 L347.742,44.568 L347.742,74.36 L320.992,74.36 z" fill-opacity="0" stroke="#FFFFFF" stroke-width="1"/>
      </g>
      <g>
        <path d="M347.742,163.193 L444.931,163.193 L444.931,94.979 L561.377,94.979 L561.377,214.339 L474.724,214.339 L474.724,287.632 L347.742,287.632 L347.742,163.193 z" fill="#000000"/>
        <path d="M347.742,163.193 L444.931,163.193 L444.931,94.979 L561.377,94.979 L561.377,214.339 L474.724,214.339 L474.724,287.632 L347.742,287.632 L347.742,163.193 z" fill-opacity="0" stroke="#FFFFFF" stroke-width="1"/>
      </g>
      <g>
        <path d="M51.623,287.632 L51.623,44.568 L113.397,44.568 L113.397,287.632 L51.623,287.632 z" fill="#000000"/>
        <path d="M51.623,287.632 L51.623,44.568 L113.397,44.568 L113.397,287.632 L51.623,287.632 z" fill-opacity="0" stroke="#FFFFFF" stroke-width="1"/>
      </g>
    </g>
  </g>
</svg>
