<?xml version="1.0" encoding="UTF-8"?>
<!DOCTYPE svg PUBLIC "-//W3C//DTD SVG 1.1//EN" "http://www.w3.org/Graphics/SVG/1.1/DTD/svg11.dtd">
<svg version="1.1" xmlns="http://www.w3.org/2000/svg" xmlns:xlink="http://www.w3.org/1999/xlink" x="0" y="0" width="612" height="327.6" viewBox="0, 0, 612, 327.6">
  <g id="Layer_9" transform="translate(0, -431.643)">
    <path d="M0,431.643 L612,431.643 L612,759.243 L0,759.243 L0,431.643 z" fill="#000000"/>
    <path d="M0,436.398 L612,436.398 L612,754.487 L0,754.487 L0,436.398 z" fill="#000000"/>
    <g>
      <g>
        <path d="M474.724,474.41 L474.724,524.822 L561.377,524.822 L561.377,644.182 L474.724,644.182 L474.724,717.475 L51.623,717.475 L51.623,474.411 L113.397,474.411 L113.397,474.41 L474.724,474.41 z" fill="#121212"/>
        <path d="M474.724,474.41 L474.724,524.822 L561.377,524.822 L561.377,644.182 L474.724,644.182 L474.724,717.475 L51.623,717.475 L51.623,474.411 L113.397,474.411 L113.397,474.41 L474.724,474.41 z" fill-opacity="0" stroke="#131212" stroke-width="1"/>
      </g>
      <g>
        <path d="M113.397,518.307 L474.724,518.307 L474.724,655.644 L346.639,655.644 L346.639,717.475 L238.108,717.475 L238.108,670.781 L113.397,670.781 L113.397,518.307 z" fill="#000000"/>
        <path d="M113.397,518.307 L474.724,518.307 L474.724,655.644 L346.639,655.644 L346.639,717.475 L238.108,717.475 L238.108,670.781 L113.397,670.781 L113.397,518.307 z" fill-opacity="0" stroke="#FFFFFF" stroke-width="1"/>
      </g>
      <g>
        <path d="M238.108,637.478 L170.79,637.478 L170.79,670.177 L113.397,670.177 L113.397,518.307 L238.108,518.307 L238.108,637.478 z" fill="#000000"/>
        <path d="M238.108,637.478 L170.79,637.478 L170.79,670.177 L113.397,670.177 L113.397,518.307 L238.108,518.307 L238.108,637.478 z" fill-opacity="0" stroke="#FFFFFF" stroke-width="1"/>
      </g>
      <g>
        <path d="M170.79,670.177 L170.79,637.478 L238.108,637.478 L238.108,670.177 L170.79,670.177 z" fill="#000000"/>
        <path d="M170.79,670.177 L170.79,637.478 L238.108,637.478 L238.108,670.177 L170.79,670.177 z" fill-opacity="0" stroke="#FFFFFF" stroke-width="1"/>
      </g>
      <g>
        <path d="M238.108,591.699 L238.108,518.307 L305.427,518.307 L305.427,591.699 L238.108,591.699 z" fill="#000000"/>
        <path d="M238.108,591.699 L238.108,518.307 L305.427,518.307 L305.427,591.699 L238.108,591.699 z" fill-opacity="0" stroke="#FFFFFF" stroke-width="1"/>
      </g>
      <g>
        <path d="M346.639,655.644 L346.639,593.036 L474.724,593.036 L474.724,655.644 L346.639,655.644 z" fill="#000000"/>
        <path d="M346.639,655.644 L346.639,593.036 L474.724,593.036 L474.724,655.644 L346.639,655.644 z" fill-opacity="0" stroke="#FFFFFF" stroke-width="1"/>
      </g>
      <g>
        <path d="M346.639,593.036 L346.639,564.333 L444.931,564.333 L444.931,593.036 L346.639,593.036 z" fill="#000000"/>
        <path d="M346.639,593.036 L346.639,564.333 L444.931,564.333 L444.931,593.036 L346.639,593.036 z" fill-opacity="0" stroke="#FFFFFF" stroke-width="1"/>
      </g>
    </g>
  </g>
</svg>
